Getting started with Rcompadre
…
We can now ask for a summary of this object, which will tell us that
it is a CompadreDB class S4 object. Simply
typing the name of the object (Compadre in this case) will
give a brief summary of its contents and display the first few rows of
the data (which is a tibble). Please see the
tibble vignette1 for information about this object type, and
how it differs from data.table.

summary(Compadre)
#>     Length      Class       Mode 
#>          1 CompadreDB         S4
Compadre
#> A COM(P)ADRE database ('CompadreDB') object with 110 SPECIES and 150 MATRICES.
#> 
#> # A tibble: 150 × 49
#>    mat        SpeciesAuthor  SpeciesAccepted CommonName Genus Family Order Class
#>    <list>     <chr>          <chr>           <chr>      <chr> <fct>  <fct> <fct>
#>  1 <CompdrMt> Setaria_incra… Setaria incras… <NA>       Seta… Poace… Poal… Lili…
#>  2 <CompdrMt> Lechea_cernua  Lechea cernua   <NA>       Lech… Cista… Malv… Magn…
#>  3 <CompdrMt> Actinostemon_… Actinostemon c… <NA>       Acti… Eupho… Malp… Magn…
#>  4 <CompdrMt> Gaura_neomexi… Gaura neomexic… <NA>       Gaura Onagr… Myrt… Magn…
#>  5 <CompdrMt> Eriogonum_lon… Eriogonum long… Buckwheat  Erio… Polyg… Cary… Magn…
#>  6 <CompdrMt> Platanthera_h… Platanthera ho… <NA>       Plat… Orchi… Aspa… Lili…
#>  7 <CompdrMt> Succisa_prate… Succisa praten… <NA>       Succ… Capri… Dips… Magn…
#>  8 <CompdrMt> Haplopappus_r… Pyrrocoma radi… <NA>       Pyrr… Compo… Aste… Magn…
#>  9 <CompdrMt> Astragalus_tr… Astragalus tre… <NA>       Astr… Legum… Faba… Magn…
#> 10 <CompdrMt> Plantago_coro… Plantago coron… <NA>       Plan… Plant… Lami… Magn…
#> # ℹ 140 more rows
#> # ℹ 41 more variables: Phylum <fct>, Kingdom <fct>, OrganismType <fct>,
#> #   DicotMonoc <fct>, AngioGymno <fct>, Authors <chr>, Journal <chr>,
#> #   YearPublication <chr>, DOI_ISBN <chr>, AdditionalSource <chr>,
#> #   StudyDuration <dbl>, StudyStart <dbl>, StudyEnd <dbl>,
#> #   ProjectionInterval <chr>, NumberPopulations <dbl>,
#> #   MatrixCriteriaSize <fct>, MatrixCriteriaOntogeny <fct>, …
…
Filtering/subsetting the database based on metadata

It is often desirable to subset the data based on sets of criteria.
As with a normal data frame these databases can be subset using
subset(). For example, I could subset to only Eudicot
species as follows:

x <- subset(Compadre, DicotMonoc == "Eudicot")
x
#> A COM(P)ADRE database ('CompadreDB') object with 80 SPECIES and 108 MATRICES.
#> 
#> # A tibble: 108 × 49
#>    mat        SpeciesAuthor  SpeciesAccepted CommonName Genus Family Order Class
#>    <list>     <chr>          <chr>           <chr>      <chr> <fct>  <fct> <fct>
#>  1 <CompdrMt> Lechea_cernua  Lechea cernua   <NA>       Lech… Cista… Malv… Magn…
#>  2 <CompdrMt> Actinostemon_… Actinostemon c… <NA>       Acti… Eupho… Malp… Magn…
#>  3 <CompdrMt> Gaura_neomexi… Gaura neomexic… <NA>       Gaura Onagr… Myrt… Magn…
#>  4 <CompdrMt> Eriogonum_lon… Eriogonum long… Buckwheat  Erio… Polyg… Cary… Magn…
#>  5 <CompdrMt> Succisa_prate… Succisa praten… <NA>       Succ… Capri… Dips… Magn…
#>  6 <CompdrMt> Haplopappus_r… Pyrrocoma radi… <NA>       Pyrr… Compo… Aste… Magn…
#>  7 <CompdrMt> Astragalus_tr… Astragalus tre… <NA>       Astr… Legum… Faba… Magn…
#>  8 <CompdrMt> Plantago_coro… Plantago coron… <NA>       Plan… Plant… Lami… Magn…
#>  9 <CompdrMt> Petrocoptis_p… Silene glaucif… <NA>       Sile… Caryo… Cary… Magn…
#> 10 <CompdrMt> Astragalus_pe… Astragalus pec… <NA>       Astr… Legum… Faba… Magn…
#> # ℹ 98 more rows
#> # ℹ 41 more variables: Phylum <fct>, Kingdom <fct>, OrganismType <fct>,
#> #   DicotMonoc <fct>, AngioGymno <fct>, Authors <chr>, Journal <chr>,
#> #   YearPublication <chr>, DOI_ISBN <chr>, AdditionalSource <chr>,
#> #   StudyDuration <dbl>, StudyStart <dbl>, StudyEnd <dbl>,
#> #   ProjectionInterval <chr>, NumberPopulations <dbl>,
#> #   MatrixCriteriaSize <fct>, MatrixCriteriaOntogeny <fct>, …
…
